{"uuid":"2e0c5e68-b1cc-42d5-ad38-4486527aad28","historyId":"3e2f44aa8b207cdb307835098c14e025","fullName":"ReqresTest.Test_01","labels":[{"name":"package","value":"ReqresTest"},{"name":"testClass","value":"ReqresTest"},{"name":"testMethod","value":"Test_01"},{"name":"parentSuite","value":"All Test Suite"},{"name":"suite","value":"F:/Workspace/RestAPI/src/test/java/ReqresTest.java"},{"name":"subSuite","value":"ReqresTest"},{"name":"host","value":"DESKTOP-OH5VSFP"},{"name":"thread","value":"15288@DESKTOP-OH5VSFP.main(1)"}],"links":[],"name":"Test_01","status":"passed","statusDetails":{"known":false,"muted":false,"flaky":false},"stage":"finished","start":1596524946550,"stop":1596524949647,"steps":[{"name":"Received data: ","status":"passed","stage":"finished","start":1596524949638,"stop":1596524949640,"parameters":[{"name":"response","value":"{\"page\":2,\"per_page\":6,\"total\":12,\"total_pages\":2,\"data\":[{\"id\":7,\"email\":\"michael.lawson@reqres.in\",\"first_name\":\"Michael\",\"last_name\":\"Lawson\",\"avatar\":\"https://s3.amazonaws.com/uifaces/faces/twitter/follettkyle/128.jpg\"},{\"id\":8,\"email\":\"lindsay.ferguson@reqres.in\",\"first_name\":\"Lindsay\",\"last_name\":\"Ferguson\",\"avatar\":\"https://s3.amazonaws.com/uifaces/faces/twitter/araa3185/128.jpg\"},{\"id\":9,\"email\":\"tobias.funke@reqres.in\",\"first_name\":\"Tobias\",\"last_name\":\"Funke\",\"avatar\":\"https://s3.amazonaws.com/uifaces/faces/twitter/vivekprvr/128.jpg\"},{\"id\":10,\"email\":\"byron.fields@reqres.in\",\"first_name\":\"Byron\",\"last_name\":\"Fields\",\"avatar\":\"https://s3.amazonaws.com/uifaces/faces/twitter/russoedu/128.jpg\"},{\"id\":11,\"email\":\"george.edwards@reqres.in\",\"first_name\":\"George\",\"last_name\":\"Edwards\",\"avatar\":\"https://s3.amazonaws.com/uifaces/faces/twitter/mrmoiree/128.jpg\"},{\"id\":12,\"email\":\"rachel.howell@reqres.in\",\"first_name\":\"Rachel\",\"last_name\":\"Howell\",\"avatar\":\"https://s3.amazonaws.com/uifaces/faces/twitter/hebertialmeida/128.jpg\"}],\"ad\":{\"company\":\"StatusCode Weekly\",\"url\":\"http://statuscode.org/\",\"text\":\"A weekly newsletter focusing on software development, infrastructure, the server, performance, and the stack end of things.\"}}"}]}],"parameters":[]}